…
```
## [1] 10395
```
### **Calculate the total number of steps taken per day**

```r
steps <- activity %>%
  filter(!is.na(steps)) %>%
  group_by(date) %>%
  summarize(steps = sum(steps)) %>%
  print
```

```
## # A tibble: 53 × 2
##          date steps
##        <date> <dbl>
## 1  2012-10-02   126
## 2  2012-10-03 11352
## 3  2012-10-04 12116
## 4  2012-10-05 13294
## 5  2012-10-06 15420
## 6  2012-10-07 11015
## 7  2012-10-09 12811
## 8  2012-10-10  9900
## 9  2012-10-11 10304
## 10 2012-10-12 17382
## # ... with 43 more rows
```
…
# **Part Two**
### **What is the average daily activity pattern?**  

```r
daily <- activity %>%
  filter(!is.na(steps)) %>%
  group_by(interval) %>%
  summarize(steps = mean(steps)) %>%
  print
```

```
## # A tibble: 288 × 2
##    interval     steps
##       <int>     <dbl>
## 1         0 1.7169811
## 2         5 0.3396226
## 3        10 0.1320755
## 4        15 0.1509434
## 5        20 0.0754717
## 6        25 2.0943396
## 7        30 0.5283019
## 8        35 0.8679245
## 9        40 0.0000000
## 10       45 1.4716981
## # ... with 278 more rows
```
…
```r
new_steps <- filled %>%
  group_by(date) %>%
  summarize(steps = sum(steps)) %>%
  print
```

```
## # A tibble: 61 × 2
##          date    steps
##        <date>    <dbl>
## 1  2012-10-01 10766.19
## 2  2012-10-02   126.00
## 3  2012-10-03 11352.00
## 4  2012-10-04 12116.00
## 5  2012-10-05 13294.00
## 6  2012-10-06 15420.00
## 7  2012-10-07 11015.00
## 8  2012-10-08 10766.19
## 9  2012-10-09 12811.00
## 10 2012-10-10  9900.00
## # ... with 51 more rows
```
…
